<svg xmlns="http://www.w3.org/2000/svg" width="26" height="17" viewBox="0 0 26 17">
  <g id="Group_393" data-name="Group 393" transform="translate(-2353.5 -2576.5)">
    <path id="Path_122" data-name="Path 122" d="M23.5,16.5H2.5a2.006,2.006,0,0,1-2-2V2.5a2.006,2.006,0,0,1,2-2h21a2.006,2.006,0,0,1,2,2v12A2.006,2.006,0,0,1,23.5,16.5Z" transform="translate(2353.5 2576.5)" fill="rgba(0,0,0,0)" stroke="#707070" stroke-linecap="round" stroke-linejoin="round" stroke-miterlimit="10" stroke-width="1"/>
    <path id="Path_123" data-name="Path 123" d="M7,.5C7,6.5,4.5,7.1.5,7.1" transform="translate(2353.5 2576.5)" fill="none" stroke="#707070" stroke-linecap="round" stroke-linejoin="round" stroke-miterlimit="10" stroke-width="1"/>
    <path id="Path_124" data-name="Path 124" d="M25.5,7c-6,0-6.6-2.5-6.6-6.5" transform="translate(2353.5 2576.5)" fill="none" stroke="#707070" stroke-linecap="round" stroke-linejoin="round" stroke-miterlimit="10" stroke-width="1"/>
    <path id="Path_125" data-name="Path 125" d="M7,16.5c0-6-2.5-6.6-6.5-6.6" transform="translate(2353.5 2576.5)" fill="none" stroke="#707070" stroke-linecap="round" stroke-linejoin="round" stroke-miterlimit="10" stroke-width="1"/>
    <path id="Path_126" data-name="Path 126" d="M25.5,10c-6,0-6.6,2.5-6.6,6.5" transform="translate(2353.5 2576.5)" fill="none" stroke="#707070" stroke-linecap="round" stroke-linejoin="round" stroke-miterlimit="10" stroke-width="1"/>
    <g id="Group_198" data-name="Group 198" transform="translate(2353.5 2576.5)">
      <path id="Path_127" data-name="Path 127" d="M13.4,11.5v.9h-.7v-.9a2.56,2.56,0,0,1-1.9-.8l.6-.6a1.974,1.974,0,0,0,1.4.6V8.9h-.2a2.257,2.257,0,0,1-1.1-.5,1.594,1.594,0,0,1-.4-1.2,1.706,1.706,0,0,1,1.7-1.8V4.7h.7v.8a1.865,1.865,0,0,1,1.6.7l-.6.6a2.22,2.22,0,0,0-1.1-.5V8.1h.3a1.932,1.932,0,0,1,1.1.4,1.656,1.656,0,0,1,.5,1.2A1.88,1.88,0,0,1,13.4,11.5Zm-.7-5.3q-.9.15-.9.9a1.421,1.421,0,0,0,.2.6,1.08,1.08,0,0,0,.7.3Zm1.4,3a2.614,2.614,0,0,0-.8-.3v1.8c.6-.1,1-.4,1-.9A1.072,1.072,0,0,0,14.1,9.2Z" fill="#707070"/>
    </g>
  </g>
</svg>
