<svg xmlns="http://www.w3.org/2000/svg" width="23.909" height="19.452" viewBox="0 0 23.909 19.452">
  <g id="Group_391" data-name="Group 391" transform="translate(-129.5 -243.5)">
    <path id="Path_118" data-name="Path 118" d="M24.133,11.625,8.93,13.569,6.5,2.6H24.619a.949.949,0,0,1,.972.972v6.456A1.7,1.7,0,0,1,24.133,11.625Z" transform="translate(127.318 242.511)" fill="#707070" stroke="#707070" stroke-width="1"/>
    <path id="Path_119" data-name="Path 119" d="M1,1H4.54L7.317,13.079v2.5l-.486.555h14.3" transform="translate(129 243)" fill="none" stroke="#707070" stroke-linecap="round" stroke-linejoin="round" stroke-miterlimit="10" stroke-width="1"/>
    <circle id="Ellipse_5" data-name="Ellipse 5" cx="1.388" cy="1.388" r="1.388" transform="translate(135.068 260.175)" fill="#707070"/>
    <circle id="Ellipse_6" data-name="Ellipse 6" cx="1.388" cy="1.388" r="1.388" transform="translate(147.703 260.175)" fill="#707070"/>
  </g>
</svg>
